(footprint "Arduino_Uno_Shield_No_ISP" (version 20211014) (generator pcbnew)
  (layer "F.Cu")
  (tedit 61B64BD0)
  (fp_text reference "REF**" (at 2.5 -1 unlocked) (layer "F.Fab")
    (effects (font (size 1 1) (thickness 0.15)))
    (tstamp 7cf8a59e-dcd3-4e52-930e-4fd5cc71095d)
  )
  (fp_text value "Arduino_Uno_Shield_No_ISP" (at 10.5 1.5 unlocked) (layer "F.Fab")
    (effects (font (size 1 1) (thickness 0.15)))
    (tstamp 64d95bc0-1191-4e55-a344-97d8012f73ae)
  )
  (fp_line (start 66.04 -40.64) (end 66.04 -51.816) (layer "Edge.Cuts") (width 0.15) (tstamp 5d7c4e89-3b7e-4fdd-a28a-d39df69c3718))
  (fp_line (start 68.58 -3.81) (end 68.58 -38.1) (layer "Edge.Cuts") (width 0.15) (tstamp 7cc096b7-cd22-4171-bb36-7966aeb769d2))
  (fp_line (start 66.04 -1.27) (end 68.58 -3.81) (layer "Edge.Cuts") (width 0.15) (tstamp 7f8d3b57-0160-468e-9471-2f294bf852bc))
  (fp_line (start 64.516 -53.34) (end 66.04 -51.816) (layer "Edge.Cuts") (width 0.15) (tstamp 806976f1-31c1-4c97-a789-2b98d54c78bf))
  (fp_line (start 0 -53.34) (end 64.516 -53.34) (layer "Edge.Cuts") (width 0.15) (tstamp 876123ba-97c7-4798-aa0e-4e40db7bbdca))
  (fp_line (start 0 0) (end 66.04 0) (layer "Edge.Cuts") (width 0.15) (tstamp bf762e8c-3e5a-46d6-8272-e53d43d99711))
  (fp_line (start 0 -53.34) (end 0 0) (layer "Edge.Cuts") (width 0.15) (tstamp ce9b214a-d106-46f7-bc90-8e43d3c76a29))
  (fp_line (start 68.58 -38.1) (end 66.04 -40.64) (layer "Edge.Cuts") (width 0.15) (tstamp d4111f83-58dc-417a-8139-e81da3215db3))
  (fp_line (start 66.04 0) (end 66.04 -1.27) (layer "Edge.Cuts") (width 0.15) (tstamp e3b6b4c6-7509-4c27-a491-4da1fa82bb10))
  (fp_line (start -1.905 -3.175) (end 11.43 -3.175) (layer "B.CrtYd") (width 0.15) (tstamp 16ca46e2-df51-4253-9f79-332e51ca61c4))
  (fp_line (start -1.905 -12.065) (end -1.905 -3.175) (layer "B.CrtYd") (width 0.15) (tstamp 4b9d7c46-ef1e-42d5-87af-2e9098053968))
  (fp_line (start -1.905 -12.065) (end 11.43 -12.065) (layer "B.CrtYd") (width 0.15) (tstamp 52a667b6-6dfa-4795-ae9a-cb90e71aced8))
  (fp_line (start -6.35 -43.815) (end -6.35 -32.385) (layer "B.CrtYd") (width 0.15) (tstamp 9e401ca3-c6eb-4b04-85f8-031cee376325))
  (fp_line (start 9.525 -32.385) (end -6.35 -32.385) (layer "B.CrtYd") (width 0.15) (tstamp aae2bf8d-32df-4714-b717-c027c1e824c3))
  (fp_line (start 9.525 -43.815) (end -6.35 -43.815) (layer "B.CrtYd") (width 0.15) (tstamp d75084b0-ee87-4e13-8aab-36e0d81320b9))
  (fp_line (start 9.525 -43.815) (end 9.525 -32.385) (layer "B.CrtYd") (width 0.15) (tstamp d7db9828-5448-48b0-b19f-41232f521bb8))
  (fp_line (start 11.43 -12.065) (end 11.43 -3.175) (layer "B.CrtYd") (width 0.15) (tstamp f33468f2-5250-477f-8915-1a75f1a0ab96))
  (pad "" np_thru_hole circle (at 15.24 -50.8) (size 3.2 3.2) (drill 3.2) (layers *.Cu *.Mask) (tstamp 16b0ebcd-819c-4e72-8a37-e4ee39daf144))
  (pad "" np_thru_hole circle (at 66.04 -7.62) (size 3.2 3.2) (drill 3.2) (layers *.Cu *.Mask) (tstamp 18e66074-fde0-470a-bdb2-847fabcaf725))
  (pad "" np_thru_hole circle (at 13.97 -2.54) (size 3.2 3.2) (drill 3.2) (layers *.Cu *.Mask) (tstamp 74fff8a0-a293-407d-96ef-d4631c3fc301))
  (pad "" np_thru_hole circle (at 66.04 -35.56) (size 3.2 3.2) (drill 3.2) (layers *.Cu *.Mask) (tstamp ba6ed08d-99d0-46d2-9882-037ff1cb7cbe))
  (pad "1" thru_hole oval (at 27.94 -2.54) (size 1.6 2.4) (drill 1) (layers *.Cu *.Mask) (tstamp ebc8718c-26a2-45b4-9067-1450f204d11e))
  (pad "2" thru_hole oval (at 30.48 -2.54) (size 1.6 2.4) (drill 1) (layers *.Cu *.Mask) (tstamp a0739a5b-2ed6-4801-a45c-80802126faa0))
  (pad "3" thru_hole oval (at 33.02 -2.54) (size 1.6 2.4) (drill 1) (layers *.Cu *.Mask) (tstamp 3e2db0e4-8853-453c-9bef-62bcf2bd5021))
  (pad "4" thru_hole oval (at 35.56 -2.54) (size 1.6 2.4) (drill 1) (layers *.Cu *.Mask) (tstamp 9cb1bc38-1a7f-4d11-9e2b-9d32a896bfef))
  (pad "5" thru_hole oval (at 38.1 -2.54) (size 1.6 2.4) (drill 1) (layers *.Cu *.Mask) (tstamp 8072be10-47fb-4665-b026-00fb881b3b9f))
  (pad "6" thru_hole oval (at 40.64 -2.54) (size 1.6 2.4) (drill 1) (layers *.Cu *.Mask) (tstamp 5fd9768a-bf5f-4c7e-87c5-b324e621987a))
  (pad "7" thru_hole oval (at 43.18 -2.54) (size 1.6 2.4) (drill 1) (layers *.Cu *.Mask) (tstamp c3544c62-8c6f-4e64-a81b-c252356ee63e))
  (pad "8" thru_hole oval (at 45.72 -2.54) (size 1.6 2.4) (drill 1) (layers *.Cu *.Mask) (tstamp 9963799e-0566-4f6e-a0a7-618ed6455163))
  (pad "9" thru_hole oval (at 50.8 -2.54) (size 1.6 2.4) (drill 1) (layers *.Cu *.Mask) (tstamp 088b2c3c-2c90-4c89-ac85-af839a4cbc99))
  (pad "10" thru_hole oval (at 53.34 -2.54) (size 1.6 2.4) (drill 1) (layers *.Cu *.Mask) (tstamp 4b432946-23b1-4cd2-b5f5-5e3fabb6f67e))
  (pad "11" thru_hole oval (at 55.88 -2.54) (size 1.6 2.4) (drill 1) (layers *.Cu *.Mask) (tstamp cccf26b4-25d5-4028-9e1a-e6c87183cd8d))
  (pad "12" thru_hole oval (at 58.42 -2.54) (size 1.6 2.4) (drill 1) (layers *.Cu *.Mask) (tstamp 1f039ec4-fc89-4aa0-8997-7078c742e288))
  (pad "13" thru_hole oval (at 60.96 -2.54) (size 1.6 2.4) (drill 1) (layers *.Cu *.Mask) (tstamp d5ed5350-d339-498e-94f2-9cdeddbcab73))
  (pad "14" thru_hole oval (at 63.5 -2.54) (size 1.6 2.4) (drill 1) (layers *.Cu *.Mask) (tstamp 2952f2d1-c09f-418c-9ee3-77a16b6d40e8))
  (pad "15" thru_hole oval (at 63.5 -50.8) (size 1.6 2.4) (drill 1) (layers *.Cu *.Mask) (tstamp d9c6b37a-2356-471b-b407-c1d557f0c08d))
  (pad "16" thru_hole oval (at 60.96 -50.8) (size 1.6 2.4) (drill 1) (layers *.Cu *.Mask) (tstamp 7766f477-024e-4062-8271-c2164c9897e4))
  (pad "17" thru_hole oval (at 58.42 -50.8) (size 1.6 2.4) (drill 1) (layers *.Cu *.Mask) (tstamp 9550abec-ec8c-4ac7-9549-7ed4bef82509))
  (pad "18" thru_hole oval (at 55.88 -50.8) (size 1.6 2.4) (drill 1) (layers *.Cu *.Mask) (tstamp 93bfa5fa-ff5e-4c76-a2b5-2851fafb7fcb))
  (pad "19" thru_hole oval (at 53.34 -50.8) (size 1.6 2.4) (drill 1) (layers *.Cu *.Mask) (tstamp 1d38d41c-9a25-489f-b313-070430c0c331))
  (pad "20" thru_hole oval (at 50.8 -50.8) (size 1.6 2.4) (drill 1) (layers *.Cu *.Mask) (tstamp d72e99e4-c819-4eee-9c7e-2721733f8800))
  (pad "21" thru_hole oval (at 48.26 -50.8) (size 1.6 2.4) (drill 1) (layers *.Cu *.Mask) (tstamp 7e8aece4-08a4-4132-8f34-2dc5f37a9caa))
  (pad "22" thru_hole oval (at 45.72 -50.8) (size 1.6 2.4) (drill 1) (layers *.Cu *.Mask) (tstamp 9f76a22a-6c3c-46ff-82dd-8ccb9d9dffd7))
  (pad "23" thru_hole oval (at 41.656 -50.8) (size 1.6 2.4) (drill 1) (layers *.Cu *.Mask) (tstamp 4713fd6c-c38a-426b-a3d1-dd40d2f573b2))
  (pad "24" thru_hole oval (at 39.116 -50.8) (size 1.6 2.4) (drill 1) (layers *.Cu *.Mask) (tstamp 49c28102-8b37-402d-8b4d-71edb458bbeb))
  (pad "25" thru_hole oval (at 36.576 -50.8) (size 1.6 2.4) (drill 1) (layers *.Cu *.Mask) (tstamp 343e6c84-8b0e-4dd1-8217-1b12619210f4))
  (pad "26" thru_hole oval (at 34.036 -50.8) (size 1.6 2.4) (drill 1) (layers *.Cu *.Mask) (tstamp 7d51946c-9341-45c8-818c-58cdd242210c))
  (pad "27" thru_hole oval (at 31.496 -50.8) (size 1.6 2.4) (drill 1) (layers *.Cu *.Mask) (tstamp 23e4a070-2b1c-4eed-b282-a3b891655268))
  (pad "28" thru_hole oval (at 28.956 -50.8) (size 1.6 2.4) (drill 1) (layers *.Cu *.Mask) (tstamp 47fee09a-d7a0-498f-9c53-0ba06e7e4357))
  (pad "29" thru_hole oval (at 26.416 -50.8) (size 1.6 2.4) (drill 1) (layers *.Cu *.Mask) (tstamp 4c7b81fc-afb7-4a13-aca3-08099be16c5d))
  (pad "30" thru_hole oval (at 23.876 -50.8) (size 1.6 2.4) (drill 1) (layers *.Cu *.Mask) (tstamp efab4956-a7d6-42c3-97f7-973bf3f8fa8b))
  (pad "31" thru_hole oval (at 21.336 -50.8) (size 1.6 2.4) (drill 1) (layers *.Cu *.Mask) (tstamp 4b237265-af89-4148-8a9c-8511108a243d))
  (pad "32" thru_hole oval (at 18.796 -50.8) (size 1.6 2.4) (drill 1) (layers *.Cu *.Mask) (tstamp 7da62084-77df-4af3-a69b-fe56d03cfdb3))
  (model "${KICAD6_LIB_FALKO_SCHMIDT}/3dmodels.pretty/PinHeader_1x06_P2.54mm_Vertical.step"
    (offset (xyz 50.8 2.55 -1.5))
    (scale (xyz 1 1 1))
    (rotate (xyz 180 0 90))
  )
  (model "${KICAD6_LIB_FALKO_SCHMIDT}/3dmodels.pretty/PinHeader_1x08_P2.54mm_Vertical.step"
    (offset (xyz 27.95 2.55 -1.5))
    (scale (xyz 1 1 1))
    (rotate (xyz 180 0 90))
  )
  (model "${KICAD6_LIB_FALKO_SCHMIDT}/3dmodels.pretty/PinHeader_1x08_P2.54mm_Vertical.step"
    (offset (xyz 45.72 50.8 -1.5))
    (scale (xyz 1 1 1))
    (rotate (xyz 180 0 90))
  )
  (model "${KICAD6_LIB_FALKO_SCHMIDT}/3dmodels.pretty/PinHeader_1x10_P2.54mm_Vertical.step"
    (offset (xyz 18.8 50.8 -1.5))
    (scale (xyz 1 1 1))
    (rotate (xyz 180 0 90))
  )
)
