(footprint "C_0402_0.5x0.5mm_Pad" (version 20211014) (generator pcbnew)
  (layer "F.Cu")
  (tedit 61C45CAA)
  (solder_paste_ratio -0.1)
  (attr smd)
  (fp_text reference "REF**" (at 0 -1 unlocked) (layer "F.SilkS")
    (effects (font (size 0.8 0.8) (thickness 0.12)))
    (tstamp 6b6a71cd-8d99-4e4f-9413-88bd4ae099aa)
  )
  (fp_text value "C_0402_0.5x0.5mm_Pad" (at 0 1 unlocked) (layer "User.1")
    (effects (font (size 0.5 0.5) (thickness 0.1)))
    (tstamp b856d662-6aaf-4945-ad95-6dfc908f6ccb)
  )
  (fp_text user "${REFERENCE}" (at 0 0 unlocked) (layer "F.Fab")
    (effects (font (size 0.3 0.3) (thickness 0.07)))
    (tstamp 4cb7a894-bb4e-4af1-ac70-43aa5cd340b6)
  )
  (fp_line (start -0.15 0.2) (end 0.15 0.2) (layer "F.SilkS") (width 0.12) (tstamp 47d49bdd-bacb-468f-bcfb-647fd9ccff38))
  (fp_line (start -0.15 -0.2) (end 0.15 -0.2) (layer "F.SilkS") (width 0.12) (tstamp 71c84a4a-5d81-46df-a82f-84ff433708b7))
  (fp_line (start -1 -0.5) (end 1 -0.5) (layer "F.CrtYd") (width 0.05) (tstamp 9aa8a37e-2708-4f98-88d2-0bd515891126))
  (fp_line (start -1 0.5) (end -1 -0.5) (layer "F.CrtYd") (width 0.05) (tstamp abe5fdbc-19b9-4b49-af2e-b681d888e7d1))
  (fp_line (start -1 0.5) (end 1 0.5) (layer "F.CrtYd") (width 0.05) (tstamp c7c93a1b-1599-4491-81a5-2cbefc19013d))
  (fp_line (start 1 0.5) (end 1 -0.5) (layer "F.CrtYd") (width 0.05) (tstamp ef8d0df8-a75a-4d4f-bd89-4f0e85a6e321))
  (fp_line (start 0.5 0.3) (end -0.5 0.3) (layer "F.Fab") (width 0.1) (tstamp 7370207b-f40e-4f9a-964b-d47ba3b20635))
  (fp_line (start -0.5 -0.3) (end 0.5 -0.3) (layer "F.Fab") (width 0.1) (tstamp ade9a917-f56b-4b4e-8223-d4a15c0de94f))
  (pad "1" smd roundrect (at -0.5 0) (size 0.5 0.5) (layers "F.Cu" "F.Paste" "F.Mask") (roundrect_rratio 0.25) (tstamp 86718c7d-2943-402b-9e45-e521335cadab))
  (pad "2" smd roundrect (at 0.5 0) (size 0.5 0.5) (layers "F.Cu" "F.Paste" "F.Mask") (roundrect_rratio 0.25) (tstamp 2211dc9b-c955-4613-93c5-41b96fa1230a))
  (model "${KICAD_WEATHERBALLON_LIB_UULM}/3dmodels.pretty/C_0402_1005Metric.step"
    (offset (xyz 0 0 0))
    (scale (xyz 1 1 1))
    (rotate (xyz 0 0 0))
  )
)
