(footprint "PinSocket_2x15_P2.54mm_Vertical_SMD_With_Vias" (version 20211014) (generator pcbnew)
  (layer "F.Cu")
  (tedit 5A19A42F)
  (descr "surface-mounted straight socket strip, 2x15, 2.54mm pitch, double cols (from Kicad 4.0.7), script generated")
  (tags "Surface mounted socket strip SMD 2x15 2.54mm double row")
  (attr smd)
  (fp_text reference "REF**" (at 0 -20.55) (layer "F.SilkS")
    (effects (font (size 1 1) (thickness 0.15)))
    (tstamp 1d35335c-b3cb-4db0-aa76-ef4e897ba4ef)
  )
  (fp_text value "PinSocket_2x15_P2.54mm_Vertical_SMD_With_Vias" (at 0 20.55) (layer "User.1")
    (effects (font (size 1 1) (thickness 0.15)))
    (tstamp e0c281af-7caf-4a95-a4f3-9be2d31b3b0e)
  )
  (fp_text user "${REFERENCE}" (at 0 0 90) (layer "F.Fab")
    (effects (font (size 1 1) (thickness 0.15)))
    (tstamp 7f93e8ed-1d61-44f6-b01a-020874acf885)
  )
  (fp_line (start -2.6 8.38) (end -2.6 9.4) (layer "F.SilkS") (width 0.12) (tstamp 0a503291-c541-4726-9ecf-79ff4e022e06))
  (fp_line (start -2.6 -1.78) (end -2.6 -0.76) (layer "F.SilkS") (width 0.12) (tstamp 101482c7-2062-4e8c-ba7d-3456447df30d))
  (fp_line (start -2.6 0.76) (end -2.6 1.78) (layer "F.SilkS") (width 0.12) (tstamp 1737b58b-445a-45b9-9dc8-8885f079aea1))
  (fp_line (start -2.6 -19.11) (end 2.6 -19.11) (layer "F.SilkS") (width 0.12) (tstamp 1f28d9a4-3eec-4850-93b2-97e1eeaefa6c))
  (fp_line (start 2.6 10.92) (end 2.6 11.94) (layer "F.SilkS") (width 0.12) (tstamp 28a50f19-3b51-4910-a30a-26707c0df0d8))
  (fp_line (start -2.6 18.54) (end -2.6 19.11) (layer "F.SilkS") (width 0.12) (tstamp 37d7003f-eef0-44a4-b932-22a7364c8cfd))
  (fp_line (start 2.6 -1.78) (end 2.6 -0.76) (layer "F.SilkS") (width 0.12) (tstamp 3930b2c4-c4b9-4352-a881-1c49da7bb2d7))
  (fp_line (start -2.6 5.84) (end -2.6 6.86) (layer "F.SilkS") (width 0.12) (tstamp 3a8e916f-ab7c-4b5e-bfe1-79f207916cbb))
  (fp_line (start 2.6 -6.86) (end 2.6 -5.84) (layer "F.SilkS") (width 0.12) (tstamp 3daf4c4a-5347-44e3-8255-b5b6f1dc1c4a))
  (fp_line (start -2.6 -17.02) (end -2.6 -16) (layer "F.SilkS") (width 0.12) (tstamp 45a02000-9be6-4aee-96a1-4c78376b067b))
  (fp_line (start 2.6 0.76) (end 2.6 1.78) (layer "F.SilkS") (width 0.12) (tstamp 5034793c-8ac8-4479-8788-ff48013cd042))
  (fp_line (start 2.6 -18.54) (end 3.96 -18.54) (layer "F.SilkS") (width 0.12) (tstamp 5bede91c-67e0-4f39-869c-9bef22b40c9e))
  (fp_line (start 2.6 8.38) (end 2.6 9.4) (layer "F.SilkS") (width 0.12) (tstamp 5d8cd11e-7f44-4623-aadb-e1b7ed52688f))
  (fp_line (start -2.6 3.3) (end -2.6 4.32) (layer "F.SilkS") (width 0.12) (tstamp 69b670dc-d196-485f-91d1-42b427720092))
  (fp_line (start -2.6 10.92) (end -2.6 11.94) (layer "F.SilkS") (width 0.12) (tstamp 6e5245ef-f3a7-478a-a974-397c2749665b))
  (fp_line (start 2.6 -11.94) (end 2.6 -10.92) (layer "F.SilkS") (width 0.12) (tstamp 7e6b80d0-9a60-46c6-8752-699403b574ff))
  (fp_line (start -2.6 -6.86) (end -2.6 -5.84) (layer "F.SilkS") (width 0.12) (tstamp 8432d818-b401-4692-8e9e-fab734998f08))
  (fp_line (start 2.6 5.84) (end 2.6 6.86) (layer "F.SilkS") (width 0.12) (tstamp 90b97561-7e6e-42c0-bc80-e01520bbad5f))
  (fp_line (start 2.6 -17.02) (end 2.6 -16) (layer "F.SilkS") (width 0.12) (tstamp 96ef8578-7b36-4f7d-b53d-125d2ed8fa9f))
  (fp_line (start 2.6 -9.4) (end 2.6 -8.38) (layer "F.SilkS") (width 0.12) (tstamp 9d2f31db-9ebb-42a1-828b-73bfc34809b6))
  (fp_line (start 2.6 3.3) (end 2.6 4.32) (layer "F.SilkS") (width 0.12) (tstamp a43fba2b-9665-4252-ad11-333a685bd509))
  (fp_line (start -2.6 -11.94) (end -2.6 -10.92) (layer "F.SilkS") (width 0.12) (tstamp a8a1f71c-acd3-41e6-9390-16c0295d302a))
  (fp_line (start -2.6 -14.48) (end -2.6 -13.46) (layer "F.SilkS") (width 0.12) (tstamp aea98798-88b7-4aed-b35c-8e4c5187a777))
  (fp_line (start 2.6 16) (end 2.6 17.02) (layer "F.SilkS") (width 0.12) (tstamp b2df74db-fa17-4cb4-892c-c5ed66618d0a))
  (fp_line (start 2.6 13.46) (end 2.6 14.48) (layer "F.SilkS") (width 0.12) (tstamp bb0a75b9-bc07-4dff-bbd7-8c2a17a54f79))
  (fp_line (start -2.6 13.46) (end -2.6 14.48) (layer "F.SilkS") (width 0.12) (tstamp bff442b5-3e8f-4d83-a06f-9c290f6b6034))
  (fp_line (start 2.6 -19.11) (end 2.6 -18.54) (layer "F.SilkS") (width 0.12) (tstamp c3d75ae3-3b9d-4569-b5bd-190c147562e4))
  (fp_line (start -2.6 19.11) (end 2.6 19.11) (layer "F.SilkS") (width 0.12) (tstamp cae95dc0-3463-4056-b4a7-2ea4ee01ae3f))
  (fp_line (start -2.6 -4.32) (end -2.6 -3.3) (layer "F.SilkS") (width 0.12) (tstamp cc1a9add-7afa-4ece-a785-931b48b7b4bd))
  (fp_line (start 2.6 -4.32) (end 2.6 -3.3) (layer "F.SilkS") (width 0.12) (tstamp d31c3ae3-3bf7-424b-89b2-e9f00142409f))
  (fp_line (start -2.6 -9.4) (end -2.6 -8.38) (layer "F.SilkS") (width 0.12) (tstamp dc11acda-acea-4c51-9754-e1173811f54a))
  (fp_line (start -2.6 -19.11) (end -2.6 -18.54) (layer "F.SilkS") (width 0.12) (tstamp e55d919d-7b31-4d38-a181-10fc91ff926f))
  (fp_line (start -2.6 16) (end -2.6 17.02) (layer "F.SilkS") (width 0.12) (tstamp e6700565-7ca1-4ce7-ad58-7c250654beee))
  (fp_line (start 2.6 18.54) (end 2.6 19.11) (layer "F.SilkS") (width 0.12) (tstamp e7c53711-c678-4054-849f-b2093fb2fc8b))
  (fp_line (start 2.6 -14.48) (end 2.6 -13.46) (layer "F.SilkS") (width 0.12) (tstamp fe039dc0-8be4-42ca-af97-8b936b80f4af))
  (fp_line (start 4.5 -19.55) (end 4.5 19.55) (layer "F.CrtYd") (width 0.05) (tstamp 3fa848f6-5b74-4711-8237-cfb5bc3cb509))
  (fp_line (start -4.55 19.55) (end -4.55 -19.55) (layer "F.CrtYd") (width 0.05) (tstamp b57b51a8-f0b8-4fc7-9f46-9788d217c7e4))
  (fp_line (start 4.5 19.55) (end -4.55 19.55) (layer "F.CrtYd") (width 0.05) (tstamp c0d64cc4-ec70-4aa3-9a54-12e7e3a4c215))
  (fp_line (start -4.55 -19.55) (end 4.5 -19.55) (layer "F.CrtYd") (width 0.05) (tstamp c4b36560-d571-4592-9856-99c12b77666f))
  (fp_line (start 3.92 12.38) (end 3.92 13.02) (layer "F.Fab") (width 0.1) (tstamp 029b1fdc-9745-4bb7-932e-3c6fa74e4a81))
  (fp_line (start -3.92 -4.76) (end -3.92 -5.4) (layer "F.Fab") (width 0.1) (tstamp 07e9801c-d79d-47f9-a160-9cb6776d574a))
  (fp_line (start -3.92 -9.84) (end -3.92 -10.48) (layer "F.Fab") (width 0.1) (tstamp 0d4bdc6b-6afc-4bdc-a35d-92ccb773e86f))
  (fp_line (start -3.92 7.94) (end -3.92 7.3) (layer "F.Fab") (width 0.1) (tstamp 1151321f-f416-44ac-9852-62d1e26a6428))
  (fp_line (start 2.54 19.05) (end -2.54 19.05) (layer "F.Fab") (width 0.1) (tstamp 11f5a370-79b8-4e54-a691-42c3572b6167))
  (fp_line (start 3.92 9.84) (end 3.92 10.48) (layer "F.Fab") (width 0.1) (tstamp 169897d2-2252-459b-9c15-0ce263395475))
  (fp_line (start 3.92 10.48) (end 2.54 10.48) (layer "F.Fab") (width 0.1) (tstamp 18c76ee3-e1b9-4e9f-9d17-912beae65af1))
  (fp_line (start -2.54 -4.76) (end -3.92 -4.76) (layer "F.Fab") (width 0.1) (tstamp 1af7c459-d82c-497b-8c0d-33fd3223906f))
  (fp_line (start 3.92 14.92) (end 3.92 15.56) (layer "F.Fab") (width 0.1) (tstamp 23b590b8-83c1-4761-ba99-ecd5e2369239))
  (fp_line (start 3.92 5.4) (end 2.54 5.4) (layer "F.Fab") (width 0.1) (tstamp 257201af-5f5d-4279-84ee-f0cde848cc6d))
  (fp_line (start 3.92 7.3) (end 3.92 7.94) (layer "F.Fab") (width 0.1) (tstamp 2c059564-d664-4633-943c-0117d627119f))
  (fp_line (start -2.54 2.86) (end -3.92 2.86) (layer "F.Fab") (width 0.1) (tstamp 2d7d0dcc-6e4e-4d44-a4cf-506d5775fc9a))
  (fp_line (start 2.54 -18.05) (end 2.54 19.05) (layer "F.Fab") (width 0.1) (tstamp 2f2dbd14-efdf-4ab1-9690-c8414811439d))
  (fp_line (start 3.92 17.46) (end 3.92 18.1) (layer "F.Fab") (width 0.1) (tstamp 3111ab08-4e31-457a-9977-d1dea49c8757))
  (fp_line (start -2.54 5.4) (end -3.92 5.4) (layer "F.Fab") (width 0.1) (tstamp 31e5b485-af17-4f8d-85c1-2a9abf7a8b9b))
  (fp_line (start 3.92 -5.4) (end 3.92 -4.76) (layer "F.Fab") (width 0.1) (tstamp 3285042c-1837-40a3-a7fd-1c7c9b6ea988))
  (fp_line (start 3.92 -0.32) (end 3.92 0.32) (layer "F.Fab") (width 0.1) (tstamp 352097e0-5ffd-4fc5-a9c5-d9d44853cdcc))
  (fp_line (start -3.92 -12.38) (end -3.92 -13.02) (layer "F.Fab") (width 0.1) (tstamp 36b29073-9554-4e7f-963a-8909741c611f))
  (fp_line (start 3.92 0.32) (end 2.54 0.32) (layer "F.Fab") (width 0.1) (tstamp 3a4a00cf-df0e-4039-93fb-a80d9fc626a9))
  (fp_line (start -3.92 17.46) (end -2.54 17.46) (layer "F.Fab") (width 0.1) (tstamp 3a96f5f7-c70e-4d07-b7e2-ea188989fe7c))
  (fp_line (start -3.92 -2.86) (end -2.54 -2.86) (layer "F.Fab") (width 0.1) (tstamp 3b4638f1-2e0a-404d-9d46-33e2e2a10032))
  (fp_line (start -3.92 -15.56) (end -2.54 -15.56) (layer "F.Fab") (width 0.1) (tstamp 3b9d087a-f8b4-420e-a319-097323d96e3b))
  (fp_line (start -2.54 19.05) (end -2.54 -19.05) (layer "F.Fab") (width 0.1) (tstamp 3cedb4cd-d41e-4727-9159-47c8c18775ef))
  (fp_line (start -3.92 2.22) (end -2.54 2.22) (layer "F.Fab") (width 0.1) (tstamp 42299493-455f-4432-ab00-89d2c69dcfdc))
  (fp_line (start -2.54 10.48) (end -3.92 10.48) (layer "F.Fab") (width 0.1) (tstamp 42f51cfe-5bfc-451a-b955-bb24c4c59b88))
  (fp_line (start -3.92 -5.4) (end -2.54 -5.4) (layer "F.Fab") (width 0.1) (tstamp 433e6399-a017-468c-953a-ba1c75334424))
  (fp_line (start 3.92 -7.3) (end 2.54 -7.3) (layer "F.Fab") (width 0.1) (tstamp 4412e2e3-d622-4e75-9192-527d7bfc265d))
  (fp_line (start -3.92 4.76) (end -2.54 4.76) (layer "F.Fab") (width 0.1) (tstamp 459a0125-f3d1-49c1-8c93-4f4cd0abcd46))
  (fp_line (start -3.92 -2.22) (end -3.92 -2.86) (layer "F.Fab") (width 0.1) (tstamp 4c6f0672-b26c-46c9-aebd-45dbb3e60fca))
  (fp_line (start -3.92 15.56) (end -3.92 14.92) (layer "F.Fab") (width 0.1) (tstamp 4e3cb8a0-ff69-473a-b736-5441593b6a52))
  (fp_line (start 3.92 -10.48) (end 3.92 -9.84) (layer "F.Fab") (width 0.1) (tstamp 526b081c-36f1-4378-ad1e-cae3dcb120df))
  (fp_line (start 2.54 7.3) (end 3.92 7.3) (layer "F.Fab") (width 0.1) (tstamp 54277f63-0416-481b-8105-38fbde5cb387))
  (fp_line (start -2.54 15.56) (end -3.92 15.56) (layer "F.Fab") (width 0.1) (tstamp 59bf74c6-b5d2-4341-b8ab-63e630788b3d))
  (fp_line (start 3.92 15.56) (end 2.54 15.56) (layer "F.Fab") (width 0.1) (tstamp 5a127ae1-707b-4f46-87c8-e1b19d1e9884))
  (fp_line (start -3.92 5.4) (end -3.92 4.76) (layer "F.Fab") (width 0.1) (tstamp 5ac3858e-2bab-4baa-9c11-31626baeea89))
  (fp_line (start 3.92 7.94) (end 2.54 7.94) (layer "F.Fab") (width 0.1) (tstamp 5bba65e0-1268-4e8b-8982-5caeec155369))
  (fp_line (start 2.54 -0.32) (end 3.92 -0.32) (layer "F.Fab") (width 0.1) (tstamp 5bfc4f19-ba18-433d-9b88-badb01a504e5))
  (fp_line (start 2.54 -10.48) (end 3.92 -10.48) (layer "F.Fab") (width 0.1) (tstamp 5ce55ba6-bea7-4296-a85d-8072b860e244))
  (fp_line (start -3.92 -18.1) (end -2.54 -18.1) (layer "F.Fab") (width 0.1) (tstamp 5f4e1c33-d399-4f17-93fa-84299282d612))
  (fp_line (start -3.92 13.02) (end -3.92 12.38) (layer "F.Fab") (width 0.1) (tstamp 5f8da31b-8397-4314-a98e-6943233483a2))
  (fp_line (start 3.92 -2.22) (end 2.54 -2.22) (layer "F.Fab") (width 0.1) (tstamp 647bda5d-4127-4d67-8729-d75c0bee6756))
  (fp_line (start -2.54 7.94) (end -3.92 7.94) (layer "F.Fab") (width 0.1) (tstamp 6787afdf-eeeb-494e-afea-d66998a38947))
  (fp_line (start 3.92 -15.56) (end 3.92 -14.92) (layer "F.Fab") (width 0.1) (tstamp 69463275-3596-48f4-a45d-8ea17be28f4f))
  (fp_line (start 2.54 14.92) (end 3.92 14.92) (layer "F.Fab") (width 0.1) (tstamp 78ba04c1-c11b-4936-bf4e-9c35252e6484))
  (fp_line (start 3.92 18.1) (end 2.54 18.1) (layer "F.Fab") (width 0.1) (tstamp 7c7d1d46-769e-4e45-9ecf-4dd67240213f))
  (fp_line (start 2.54 2.22) (end 3.92 2.22) (layer "F.Fab") (width 0.1) (tstamp 7f7d0617-aa8d-4160-adf7-83d05eacede4))
  (fp_line (start -2.54 13.02) (end -3.92 13.02) (layer "F.Fab") (width 0.1) (tstamp 81e20f1b-9a5a-4e5c-839f-e3455b348f69))
  (fp_line (start -3.92 -0.32) (end -2.54 -0.32) (layer "F.Fab") (width 0.1) (tstamp 82a380db-c67e-4cc6-aba2-a7ba67759b4c))
  (fp_line (start 3.92 -14.92) (end 2.54 -14.92) (layer "F.Fab") (width 0.1) (tstamp 84935d46-09da-47e1-9ab1-dc9090862b77))
  (fp_line (start -2.54 0.32) (end -3.92 0.32) (layer "F.Fab") (width 0.1) (tstamp 84cc449d-380d-4490-8f45-14fed895c7af))
  (fp_line (start -3.92 12.38) (end -2.54 12.38) (layer "F.Fab") (width 0.1) (tstamp 8a3ddedf-ac4f-45b9-bc10-bc071020a463))
  (fp_line (start 2.54 17.46) (end 3.92 17.46) (layer "F.Fab") (width 0.1) (tstamp 8c57bf2f-0674-4673-be63-dc8185169f4c))
  (fp_line (start -3.92 -17.46) (end -3.92 -18.1) (layer "F.Fab") (width 0.1) (tstamp 8c856497-a2d1-43fb-b9e7-17da14831d76))
  (fp_line (start -2.54 -9.84) (end -3.92 -9.84) (layer "F.Fab") (width 0.1) (tstamp 8d651689-3363-4570-8887-7a3d79b15c5a))
  (fp_line (start 2.54 -5.4) (end 3.92 -5.4) (layer "F.Fab") (width 0.1) (tstamp 8def38c8-7479-4937-a508-ba0c508947d7))
  (fp_line (start -3.92 -7.94) (end -2.54 -7.94) (layer "F.Fab") (width 0.1) (tstamp 978117ba-7072-4a4e-aad2-e86496c29ee6))
  (fp_line (start 3.92 4.76) (end 3.92 5.4) (layer "F.Fab") (width 0.1) (tstamp 9c53bdbd-b968-4f9d-b27a-16c46c308ff3))
  (fp_line (start 3.92 -9.84) (end 2.54 -9.84) (layer "F.Fab") (width 0.1) (tstamp 9d64b84b-dc77-4779-9d2a-2172dc36bbfb))
  (fp_line (start 2.54 -13.02) (end 3.92 -13.02) (layer "F.Fab") (width 0.1) (tstamp 9d729597-0d60-4c1f-b16d-6f297ca7efe0))
  (fp_line (start -2.54 -14.92) (end -3.92 -14.92) (layer "F.Fab") (width 0.1) (tstamp 9dce02b1-dfcd-44b8-8375-bab3d753445d))
  (fp_line (start -3.92 18.1) (end -3.92 17.46) (layer "F.Fab") (width 0.1) (tstamp 9f971d36-33b2-4e8d-a0b2-b8367d217e25))
  (fp_line (start -3.92 0.32) (end -3.92 -0.32) (layer "F.Fab") (width 0.1) (tstamp a10ac88a-ba3d-42fb-a122-6fbf2dc1f66b))
  (fp_line (start -2.54 -12.38) (end -3.92 -12.38) (layer "F.Fab") (width 0.1) (tstamp a534ccd4-2d27-484c-8819-e58bd28c42f3))
  (fp_line (start 2.54 -15.56) (end 3.92 -15.56) (layer "F.Fab") (width 0.1) (tstamp a7af15fa-5b19-4e1d-8267-89652715148a))
  (fp_line (start -2.54 -7.3) (end -3.92 -7.3) (layer "F.Fab") (width 0.1) (tstamp aed0cea0-dfb2-41c3-a4ac-db539f5d3196))
  (fp_line (start 3.92 -7.94) (end 3.92 -7.3) (layer "F.Fab") (width 0.1) (tstamp af7dbd1c-de10-40e0-9cec-56cf4d18dbc7))
  (fp_line (start 2.54 4.76) (end 3.92 4.76) (layer "F.Fab") (width 0.1) (tstamp b3a05802-01d5-4a13-a5c4-3c93cc393ba4))
  (fp_line (start 2.54 12.38) (end 3.92 12.38) (layer "F.Fab") (width 0.1) (tstamp b832d8b5-1a5c-4b6b-88bc-6ef53dfa8482))
  (fp_line (start -3.92 14.92) (end -2.54 14.92) (layer "F.Fab") (width 0.1) (tstamp bba52018-e635-4575-bce9-a2ea3e3c142d))
  (fp_line (start 2.54 -7.94) (end 3.92 -7.94) (layer "F.Fab") (width 0.1) (tstamp c09bff00-4096-452d-8a7d-6cca385944e7))
  (fp_line (start 3.92 2.86) (end 2.54 2.86) (layer "F.Fab") (width 0.1) (tstamp c0da6a29-632f-42d6-af25-9fc31a4746a0))
  (fp_line (start -2.54 -2.22) (end -3.92 -2.22) (layer "F.Fab") (width 0.1) (tstamp c2f9a90c-8aef-4ded-a6ab-73b78b0e49b6))
  (fp_line (start 3.92 13.02) (end 2.54 13.02) (layer "F.Fab") (width 0.1) (tstamp c4eb4df6-cf63-4994-9c38-85d9a9235ef1))
  (fp_line (start -3.92 -13.02) (end -2.54 -13.02) (layer "F.Fab") (width 0.1) (tstamp c8937a61-9ac6-4de3-868d-b77a83bdf0cf))
  (fp_line (start 3.92 -13.02) (end 3.92 -12.38) (layer "F.Fab") (width 0.1) (tstamp cbc2301b-eea4-4ac3-84ac-aec7a9082807))
  (fp_line (start -3.92 10.48) (end -3.92 9.84) (layer "F.Fab") (width 0.1) (tstamp ce4b8f2b-f2de-4f03-b6ae-2df627d4d3d8))
  (fp_line (start -3.92 2.86) (end -3.92 2.22) (layer "F.Fab") (width 0.1) (tstamp d1a88f33-f8ff-43d4-b543-40e369d97b59))
  (fp_line (start 3.92 2.22) (end 3.92 2.86) (layer "F.Fab") (width 0.1) (tstamp d2be64a4-86fd-4f51-86fd-1c58acafc8c1))
  (fp_line (start -3.92 -10.48) (end -2.54 -10.48) (layer "F.Fab") (width 0.1) (tstamp d303527f-3611-4a2f-96f7-074dc043cff6))
  (fp_line (start -3.92 7.3) (end -2.54 7.3) (layer "F.Fab") (width 0.1) (tstamp d58172d4-e4d5-447d-9143-554f45c44119))
  (fp_line (start 1.54 -19.05) (end 2.54 -18.05) (layer "F.Fab") (width 0.1) (tstamp db213b40-4811-4292-ad00-ad4bd98168b0))
  (fp_line (start 2.54 -2.86) (end 3.92 -2.86) (layer "F.Fab") (width 0.1) (tstamp dbd922c0-77dd-477a-beca-94ac8d90d535))
  (fp_line (start -2.54 18.1) (end -3.92 18.1) (layer "F.Fab") (width 0.1) (tstamp df074dbd-cb3c-4878-99e5-5c753de22e62))
  (fp_line (start 2.54 -18.1) (end 3.92 -18.1) (layer "F.Fab") (width 0.1) (tstamp e2ff75a8-28c0-4faf-9afb-176fedaba018))
  (fp_line (start 2.54 9.84) (end 3.92 9.84) (layer "F.Fab") (width 0.1) (tstamp e67c4946-d9bc-404e-b9cb-5e1b5dfee0a7))
  (fp_line (start 3.92 -2.86) (end 3.92 -2.22) (layer "F.Fab") (width 0.1) (tstamp e77210fc-c237-40fc-8516-8814b8b706f7))
  (fp_line (start 3.92 -12.38) (end 2.54 -12.38) (layer "F.Fab") (width 0.1) (tstamp ea2bd62b-b7ca-4a78-b820-043cfa4a3634))
  (fp_line (start -3.92 -7.3) (end -3.92 -7.94) (layer "F.Fab") (width 0.1) (tstamp eed6b722-aaea-433c-8697-7e2b7e7763aa))
  (fp_line (start 3.92 -18.1) (end 3.92 -17.46) (layer "F.Fab") (width 0.1) (tstamp f4122b18-1f85-4733-9f07-36d0b0c0a16a))
  (fp_line (start -3.92 -14.92) (end -3.92 -15.56) (layer "F.Fab") (width 0.1) (tstamp f4de2431-d60e-4152-b6b4-bd60ded7d345))
  (fp_line (start -3.92 9.84) (end -2.54 9.84) (layer "F.Fab") (width 0.1) (tstamp fbf2aa06-8eb0-432a-b245-5b6d77792038))
  (fp_line (start -2.54 -19.05) (end 1.54 -19.05) (layer "F.Fab") (width 0.1) (tstamp fce29051-c1c7-4556-8348-c65561160d77))
  (fp_line (start 3.92 -17.46) (end 2.54 -17.46) (layer "F.Fab") (width 0.1) (tstamp feb939ca-8f78-464b-8e15-1da90b2856f0))
  (fp_line (start 3.92 -4.76) (end 2.54 -4.76) (layer "F.Fab") (width 0.1) (tstamp ff599b9a-58e2-4bea-9d8c-e868585a78a3))
  (fp_line (start -2.54 -17.46) (end -3.92 -17.46) (layer "F.Fab") (width 0.1) (tstamp ffa4c0db-086c-483d-abab-a64a208ae227))
  (pad "1" smd rect (at 2.52 -17.78) (size 3 1) (layers "F.Cu" "F.Paste" "F.Mask") (tstamp 070cc07d-d7e0-428e-9753-a7b5a8f2b288))
  (pad "1" thru_hole circle (at 4.826 -17.78) (size 0.8 0.8) (drill 0.4) (layers *.Cu *.Mask)
    (zone_connect 2) (tstamp 4683a72a-310f-4586-b9ca-c4f405b744d2))
  (pad "2" smd rect (at -2.52 -17.78) (size 3 1) (layers "F.Cu" "F.Paste" "F.Mask") (tstamp 474cf675-cedf-432a-8d9e-437c1514bee8))
  (pad "2" thru_hole circle (at -4.826 -17.78) (size 0.8 0.8) (drill 0.4) (layers *.Cu *.Mask)
    (zone_connect 2) (tstamp 7f5020be-b2fd-41a5-b4a9-1c2df1434097))
  (pad "3" smd rect (at 2.52 -15.24) (size 3 1) (layers "F.Cu" "F.Paste" "F.Mask") (tstamp 92364d20-4cdc-4fee-83ec-5ed6edb31d89))
  (pad "3" thru_hole circle (at 4.826 -15.24) (size 0.8 0.8) (drill 0.4) (layers *.Cu *.Mask)
    (zone_connect 2) (tstamp f8c2cd71-421e-455c-8b39-7197af13631e))
  (pad "4" thru_hole circle (at -4.826 -15.24) (size 0.8 0.8) (drill 0.4) (layers *.Cu *.Mask)
    (zone_connect 2) (tstamp 095eabd7-8a0f-40ae-8575-ed106190dda7))
  (pad "4" smd rect (at -2.52 -15.24) (size 3 1) (layers "F.Cu" "F.Paste" "F.Mask") (tstamp 31f93ba4-10f1-4c0e-aa93-390fa9b997fc))
  (pad "5" smd rect (at 2.52 -12.7) (size 3 1) (layers "F.Cu" "F.Paste" "F.Mask") (tstamp 3972d47a-a4d2-4cb7-b2e3-7843cbc9cdb6))
  (pad "5" thru_hole circle (at 4.826 -12.7) (size 0.8 0.8) (drill 0.4) (layers *.Cu *.Mask)
    (zone_connect 2) (tstamp 7e781a1a-3604-4bf9-bab5-9e753c62a0c3))
  (pad "6" smd rect (at -2.52 -12.7) (size 3 1) (layers "F.Cu" "F.Paste" "F.Mask") (tstamp 72f8b0cb-ac59-4f9a-bfa2-1a6e589fe313))
  (pad "6" thru_hole circle (at -4.826 -12.7) (size 0.8 0.8) (drill 0.4) (layers *.Cu *.Mask)
    (zone_connect 2) (tstamp dd84f3f4-0dfc-4fa4-8b05-530c167f9dea))
  (pad "7" thru_hole circle (at 4.826 -10.16) (size 0.8 0.8) (drill 0.4) (layers *.Cu *.Mask)
    (zone_connect 2) (tstamp 131c8911-8fe2-4ac5-9421-2ae7f17c0425))
  (pad "7" smd rect (at 2.52 -10.16) (size 3 1) (layers "F.Cu" "F.Paste" "F.Mask") (tstamp a62be112-8ba7-4b42-b800-f8de2a838ead))
  (pad "8" smd rect (at -2.52 -10.16) (size 3 1) (layers "F.Cu" "F.Paste" "F.Mask") (tstamp b7c5354a-bbf9-415e-a179-3130abfb10c1))
  (pad "8" thru_hole circle (at -4.826 -10.16) (size 0.8 0.8) (drill 0.4) (layers *.Cu *.Mask)
    (zone_connect 2) (tstamp e133f00c-7d92-4047-bf6f-a3b3c766caa0))
  (pad "9" thru_hole circle (at 4.826 -7.62) (size 0.8 0.8) (drill 0.4) (layers *.Cu *.Mask)
    (zone_connect 2) (tstamp 16771730-a140-4ae9-814c-684c14616944))
  (pad "9" smd rect (at 2.52 -7.62) (size 3 1) (layers "F.Cu" "F.Paste" "F.Mask") (tstamp 57b4e40a-fbda-4734-92ae-455186b97a04))
  (pad "10" thru_hole circle (at -4.826 -7.62) (size 0.8 0.8) (drill 0.4) (layers *.Cu *.Mask)
    (zone_connect 2) (tstamp 158a34ff-3cc8-4fb1-ab3f-c6bf1af24be5))
  (pad "10" smd rect (at -2.52 -7.62) (size 3 1) (layers "F.Cu" "F.Paste" "F.Mask") (tstamp 19ff7fc1-7ff5-45c9-8489-c2a07b8a7bba))
  (pad "11" thru_hole circle (at 4.826 -5.08) (size 0.8 0.8) (drill 0.4) (layers *.Cu *.Mask)
    (zone_connect 2) (tstamp 3f753bac-82e6-4a00-b638-cca42d3acdcb))
  (pad "11" smd rect (at 2.52 -5.08) (size 3 1) (layers "F.Cu" "F.Paste" "F.Mask") (tstamp 5e88a555-8b72-4a55-8ef5-06266071c119))
  (pad "12" thru_hole circle (at -4.826 -5.08) (size 0.8 0.8) (drill 0.4) (layers *.Cu *.Mask)
    (zone_connect 2) (tstamp 3dfe5ea8-7df2-4371-ba0a-f715eddfb46b))
  (pad "12" smd rect (at -2.52 -5.08) (size 3 1) (layers "F.Cu" "F.Paste" "F.Mask") (tstamp cfe80805-0ff5-4357-9212-933be351dcbc))
  (pad "13" smd rect (at 2.52 -2.54) (size 3 1) (layers "F.Cu" "F.Paste" "F.Mask") (tstamp ad27b43c-a99a-407f-b577-a71cb69a4fda))
  (pad "13" thru_hole circle (at 4.826 -2.54) (size 0.8 0.8) (drill 0.4) (layers *.Cu *.Mask)
    (zone_connect 2) (tstamp ad6aa8b0-d22a-43db-9394-5dd39d08f38c))
  (pad "14" thru_hole circle (at -4.826 -2.54) (size 0.8 0.8) (drill 0.4) (layers *.Cu *.Mask)
    (zone_connect 2) (tstamp 2895ac5a-8e4a-4663-b8f5-d4351dfcbe23))
  (pad "14" smd rect (at -2.52 -2.54) (size 3 1) (layers "F.Cu" "F.Paste" "F.Mask") (tstamp f170c455-664f-46bb-ab16-ab773e716d59))
  (pad "15" smd rect (at 2.52 0) (size 3 1) (layers "F.Cu" "F.Paste" "F.Mask") (tstamp 2eb1b60a-4e6b-4af0-9a2c-8dbb40b20464))
  (pad "15" thru_hole circle (at 4.826 0) (size 0.8 0.8) (drill 0.4) (layers *.Cu *.Mask)
    (zone_connect 2) (tstamp 88c73ab5-d148-4248-81ad-2846321c98ee))
  (pad "16" smd rect (at -2.52 0) (size 3 1) (layers "F.Cu" "F.Paste" "F.Mask") (tstamp adfefa2f-071b-48fd-9ce5-1d83e4b1d13b))
  (pad "16" thru_hole circle (at -4.826 0) (size 0.8 0.8) (drill 0.4) (layers *.Cu *.Mask)
    (zone_connect 2) (tstamp e8a05a78-9c92-4beb-9aac-ef2d027383cb))
  (pad "17" thru_hole circle (at 4.826 2.54) (size 0.8 0.8) (drill 0.4) (layers *.Cu *.Mask)
    (zone_connect 2) (tstamp 870f18c8-715f-4502-97b6-91d099238e6d))
  (pad "17" smd rect (at 2.52 2.54) (size 3 1) (layers "F.Cu" "F.Paste" "F.Mask") (tstamp af7c89b5-fae2-4a9f-ade2-b1fa22152e66))
  (pad "18" thru_hole circle (at -4.826 2.54) (size 0.8 0.8) (drill 0.4) (layers *.Cu *.Mask)
    (zone_connect 2) (tstamp 274b55da-ae4d-4863-88ec-535deae26701))
  (pad "18" smd rect (at -2.52 2.54) (size 3 1) (layers "F.Cu" "F.Paste" "F.Mask") (tstamp 58d1d242-ddfa-43c8-8409-e7f4bed1cb27))
  (pad "19" thru_hole circle (at 4.826 5.08) (size 0.8 0.8) (drill 0.4) (layers *.Cu *.Mask)
    (zone_connect 2) (tstamp adf3c993-65a8-44b5-ba3f-1a0f899a20bf))
  (pad "19" smd rect (at 2.52 5.08) (size 3 1) (layers "F.Cu" "F.Paste" "F.Mask") (tstamp e3b10316-f720-4c02-a82e-bd5b8a9e98d6))
  (pad "20" thru_hole circle (at -4.826 5.08) (size 0.8 0.8) (drill 0.4) (layers *.Cu *.Mask)
    (zone_connect 2) (tstamp 7b79dcdd-2456-415a-9e97-6e65356be301))
  (pad "20" smd rect (at -2.52 5.08) (size 3 1) (layers "F.Cu" "F.Paste" "F.Mask") (tstamp f457e6d1-7df1-41d1-9198-5d7e36d64a58))
  (pad "21" thru_hole circle (at 4.826 7.62) (size 0.8 0.8) (drill 0.4) (layers *.Cu *.Mask)
    (zone_connect 2) (tstamp 7e5662dc-1f4e-4ad9-a809-3e72ac5fe8dc))
  (pad "21" smd rect (at 2.52 7.62) (size 3 1) (layers "F.Cu" "F.Paste" "F.Mask") (tstamp f5ad56de-73ef-40b3-8c2b-f90c4c37d8a9))
  (pad "22" thru_hole circle (at -4.826 7.62) (size 0.8 0.8) (drill 0.4) (layers *.Cu *.Mask)
    (zone_connect 2) (tstamp c0512775-3179-4be7-9821-25c72da11eb1))
  (pad "22" smd rect (at -2.52 7.62) (size 3 1) (layers "F.Cu" "F.Paste" "F.Mask") (tstamp d2d97a2f-b2e8-41da-a2bb-0d3a2c92758c))
  (pad "23" smd rect (at 2.52 10.16) (size 3 1) (layers "F.Cu" "F.Paste" "F.Mask") (tstamp 61e3f630-3a1c-44e5-ba62-257df36fe772))
  (pad "23" thru_hole circle (at 4.826 10.16) (size 0.8 0.8) (drill 0.4) (layers *.Cu *.Mask)
    (zone_connect 2) (tstamp 7cba3145-22b7-44b1-a43a-ad3ac9929896))
  (pad "24" smd rect (at -2.52 10.16) (size 3 1) (layers "F.Cu" "F.Paste" "F.Mask") (tstamp 2065a2e2-1693-4fc0-a9ce-ebafb917b848))
  (pad "24" thru_hole circle (at -4.826 10.16) (size 0.8 0.8) (drill 0.4) (layers *.Cu *.Mask)
    (zone_connect 2) (tstamp 56cb5f49-c8e9-4a21-afa7-14d1ef27d5b4))
  (pad "25" smd rect (at 2.52 12.7) (size 3 1) (layers "F.Cu" "F.Paste" "F.Mask") (tstamp 712f0d0a-50e8-49c6-827c-654127895849))
  (pad "25" thru_hole circle (at 4.826 12.7) (size 0.8 0.8) (drill 0.4) (layers *.Cu *.Mask)
    (zone_connect 2) (tstamp ae881182-2081-4b34-949e-401b6c2af330))
  (pad "26" smd rect (at -2.52 12.7) (size 3 1) (layers "F.Cu" "F.Paste" "F.Mask") (tstamp 8a4970ca-ad38-49cf-acbf-56eb90b2f789))
  (pad "26" thru_hole circle (at -4.826 12.7) (size 0.8 0.8) (drill 0.4) (layers *.Cu *.Mask)
    (zone_connect 2) (tstamp f013620a-7a64-4d41-9620-2af2fcc2ade1))
  (pad "27" smd rect (at 2.52 15.24) (size 3 1) (layers "F.Cu" "F.Paste" "F.Mask") (tstamp 14854137-231c-4e30-a6cb-c94de5cd13a4))
  (pad "27" thru_hole circle (at 4.826 15.24) (size 0.8 0.8) (drill 0.4) (layers *.Cu *.Mask)
    (zone_connect 2) (tstamp 167bf85a-572d-4e61-b736-7124cf39d321))
  (pad "28" smd rect (at -2.52 15.24) (size 3 1) (layers "F.Cu" "F.Paste" "F.Mask") (tstamp 82816426-c003-4aa1-9b04-824c7d448790))
  (pad "28" thru_hole circle (at -4.826 15.24) (size 0.8 0.8) (drill 0.4) (layers *.Cu *.Mask)
    (zone_connect 2) (tstamp b2b8c89e-6732-4a95-b1fc-0743beb3929f))
  (pad "29" smd rect (at 2.52 17.78) (size 3 1) (layers "F.Cu" "F.Paste" "F.Mask") (tstamp e02ce2d5-9a16-4da8-a7ba-b56859213dc0))
  (pad "29" thru_hole circle (at 4.826 17.78) (size 0.8 0.8) (drill 0.4) (layers *.Cu *.Mask)
    (zone_connect 2) (tstamp f44009ae-ad3b-4147-b202-a3907dcfd520))
  (pad "30" thru_hole circle (at -4.826 17.78) (size 0.8 0.8) (drill 0.4) (layers *.Cu *.Mask)
    (zone_connect 2) (tstamp 8a9871a7-ec97-4cf3-8c2a-d474f3eb7323))
  (pad "30" smd rect (at -2.52 17.78) (size 3 1) (layers "F.Cu" "F.Paste" "F.Mask") (tstamp cb74acc2-27a1-49d2-96eb-23bf557b4f04))
  (model "${KICAD6_3DMODEL_DIR}/Connector_PinSocket_2.54mm.3dshapes/PinSocket_2x15_P2.54mm_Vertical_SMD.wrl"
    (offset (xyz 0 0 0))
    (scale (xyz 1 1 1))
    (rotate (xyz 0 0 0))
  )
)
