(footprint "Testpoint_Small_THT_Keystone_5000-5004" (version 20211014) (generator pcbnew)
  (layer "F.Cu")
  (tedit 61D0E194)
  (attr through_hole)
  (fp_text reference "REF**" (at 0 -2 unlocked) (layer "F.SilkS") hide
    (effects (font (size 1 1) (thickness 0.15)))
    (tstamp 50cd7dd2-4ee6-4ead-a8d7-6798eb55f8db)
  )
  (fp_text value "Testpoint_Small_THT_Keystone_5000-5004" (at 0 2 unlocked) (layer "User.1")
    (effects (font (size 1 1) (thickness 0.15)))
    (tstamp 5da519c8-016f-4f2c-843d-d8fc54aa43f1)
  )
  (fp_text user "${REFERENCE}" (at 0 -1.5 unlocked) (layer "F.Fab")
    (effects (font (size 1 1) (thickness 0.15)))
    (tstamp 5d00cbc9-46cb-472e-b705-59da8e971192)
  )
  (pad "1" thru_hole circle (at 0 0) (size 1.8 1.8) (drill 1.1) (layers *.Cu *.Mask) (tstamp 16fca551-3571-4517-ab94-7c1b9d1a3ce1))
  (model "${KICAD_WEATHERBALLON_LIB_UULM}/3dmodels.pretty/Keystone_Testpoint_5000-5004.stp"
    (offset (xyz 0 0 1.5))
    (scale (xyz 1 1 1))
    (rotate (xyz -90 0 0))
  )
)
